Demo - Data Import; {readxl}
…
tidy$chemical_names <- as.factor(tidy$chemical_names)
tidy$read_out <- as.factor(tidy$read_out)
tidy$laboratory <- as.factor(tidy$laboratory)
tidy$result <- as.numeric(tidy$result)

Rounding digits

tidy$result <- round(tidy$result, 2)

Final result

tidy

## # A tibble: 68 x 4
##                chemical_names   read_out laboratory result
##                        <fctr>     <fctr>     <fctr>  <dbl>
##  1                 Benzocaine       ec50         hu  21.45
##  2                     Citral       ec50         hu   5.08
##  3                    Euganol       ec50         hu  16.30
##  4      x-Hexylcinnamaldehyde       ec50         hu 130.25
##  5             Cinnamaldehyde       ec50         hu   5.56
##  6                 Isoeuganol       ec50         hu  13.72
##  7               Formaldehyde       ec50         hu   4.41
##  8 1-chloro-2,4-dinitrobezene       ec50         hu   0.78
##  9                  Oxazolone       ec50         hu   4.36
## 10                     Citral il_1_alpha         hu   4.11
## # ... with 58 more rows
…
