Several R plot examples
…
Dose response relations

library(drc)
ryegrass %>% as_tibble()

## # A tibble: 24 x 2
##    rootl  conc
##  * <dbl> <dbl>
##  1  7.58  0   
##  2  8     0   
##  3  8.33  0   
##  4  7.25  0   
##  5  7.38  0   
##  6  7.96  0   
##  7  8.36  0.94
##  8  6.91  0.94
##  9  7.75  0.94
## 10  6.87  1.88
## # ... with 14 more rows
…
