Introduction to {dplyr}
…
## [1] "2013"

The actual filtering (January 1st)

"January 1st" equals to flights$month == 1 & flights$day == 1

?dplyr::filter

## starting httpd help server ... done

january_1st <- filter(flights, month == 1 & day == 1)
january_1st

## # A tibble: 842 x 19
##    year  month   day dep_time sched_dep_time dep_delay arr_time
##    <fct> <int> <int>    <int>          <int>     <dbl>    <int>
##  1 2013      1     1      517            515      2.00      830
##  2 2013      1     1      533            529      4.00      850
##  3 2013      1     1      542            540      2.00      923
##  4 2013      1     1      544            545     -1.00     1004
##  5 2013      1     1      554            600     -6.00      812
##  6 2013      1     1      554            558     -4.00      740
##  7 2013      1     1      555            600     -5.00      913
##  8 2013      1     1      557            600     -3.00      709
##  9 2013      1     1      557            600     -3.00      838
## 10 2013      1     1      558            600     -2.00      753
## # ... with 832 more rows, and 12 more variables: sched_arr_time <int>,
## #   arr_delay <dbl>, carrier <chr>, flight <int>, tailnum <chr>, origin
## #   <chr>, dest <chr>, air_time <dbl>, distance <dbl>, hour <dbl>, minute
## #   <dbl>, time_hour <dttm>
…
##  [1] "year"           "month"          "day"            "dep_time"      
##  [5] "sched_dep_time" "dep_delay"      "arr_time"       "sched_arr_time"
##  [9] "arr_delay"      "carrier"        "flight"         "tailnum"       
## [13] "origin"         "dest"           "air_time"       "distance"      
## [17] "hour"           "minute"         "time_hour"

alway_delayed <- flights %>% 
  filter(arr_delay > 0) %>% 
  arrange(desc(carrier))

alway_delayed %>% select(carrier, arr_delay, day, month) %>%
  arrange(desc(arr_delay)) %>%
  mutate(arr_delay_in_hours = arr_delay/60 )

## # A tibble: 133,004 x 5
##    carrier arr_delay   day month arr_delay_in_hours
##    <chr>       <dbl> <int> <int>              <dbl>
##  1 HA           1272     9     1               21.2
##  2 MQ           1127    15     6               18.8
##  3 MQ           1109    10     1               18.5
##  4 AA           1007    20     9               16.8
##  5 MQ            989    22     7               16.5
##  6 DL            931    10     4               15.5
##  7 DL            915    17     3               15.2
##  8 DL            895    22     7               14.9
##  9 AA            878     5    12               14.6
## 10 MQ            875     3     5               14.6
## # ... with 132,994 more rows
Base R equivalent

Selecting rows and columns by logical indexing

Remember: data_frame[rows, columns]

index_logical <- flights$month == 1 & flights$day == 1
head(index_logical)

## [1] TRUE TRUE TRUE TRUE TRUE TRUE

## selecting the proper rows
flights[index_logical,]

## # A tibble: 842 x 19
##    year  month   day dep_time sched_dep_time dep_delay arr_time
##    <fct> <int> <int>    <int>          <int>     <dbl>    <int>
##  1 2013      1     1      517            515      2.00      830
##  2 2013      1     1      533            529      4.00      850
##  3 2013      1     1      542            540      2.00      923
##  4 2013      1     1      544            545     -1.00     1004
##  5 2013      1     1      554            600     -6.00      812
##  6 2013      1     1      554            558     -4.00      740
##  7 2013      1     1      555            600     -5.00      913
##  8 2013      1     1      557            600     -3.00      709
##  9 2013      1     1      557            600     -3.00      838
## 10 2013      1     1      558            600     -2.00      753
## # ... with 832 more rows, and 12 more variables: sched_arr_time <int>,
## #   arr_delay <dbl>, carrier <chr>, flight <int>, tailnum <chr>, origin
## #   <chr>, dest <chr>, air_time <dbl>, distance <dbl>, hour <dbl>, minute
## #   <dbl>, time_hour <dttm>
…
Arrange rows with arrange()

arrange() works similarly to filter()

It reorders rows

It takes a data frame and a set of column names (or more complicated expressions) to order by.

If you provide more than one column name, each additional column will be used to break ties in the values of preceding columns

Equivalent to sort function in MS Office Excel

arrange(flights, year, month, day)

## # A tibble: 336,776 x 19
##    year  month   day dep_time sched_dep_time dep_delay arr_time
##    <fct> <int> <int>    <int>          <int>     <dbl>    <int>
##  1 2013      1     1      517            515      2.00      830
##  2 2013      1     1      533            529      4.00      850
##  3 2013      1     1      542            540      2.00      923
##  4 2013      1     1      544            545     -1.00     1004
##  5 2013      1     1      554            600     -6.00      812
##  6 2013      1     1      554            558     -4.00      740
##  7 2013      1     1      555            600     -5.00      913
##  8 2013      1     1      557            600     -3.00      709
##  9 2013      1     1      557            600     -3.00      838
## 10 2013      1     1      558            600     -2.00      753
## # ... with 336,766 more rows, and 12 more variables: sched_arr_time <int>,
## #   arr_delay <dbl>, carrier <chr>, flight <int>, tailnum <chr>, origin
## #   <chr>, dest <chr>, air_time <dbl>, distance <dbl>, hour <dbl>, minute
## #   <dbl>, time_hour <dttm>
…
Select columns with select()

To select the columns of a dataframe that are actually of interest to you.

select() allows you to rapidly zoom in on a data subset:

everything_but_month <- flights %>%
  select(month:arr_delay, year)

# Select columns by name
select(flights, year, month, day)

## # A tibble: 336,776 x 3
##    year  month   day
##    <fct> <int> <int>
##  1 2013      1     1
##  2 2013      1     1
##  3 2013      1     1
##  4 2013      1     1
##  5 2013      1     1
##  6 2013      1     1
##  7 2013      1     1
##  8 2013      1     1
##  9 2013      1     1
## 10 2013      1     1
## # ... with 336,766 more rows

# Select all columns between year and day (inclusive)
select(flights, dep_delay:air_time)

## # A tibble: 336,776 x 10
##    dep_delay arr_time sched_arr_time arr_delay carrier flight tailnum
##        <dbl>    <int>          <int>     <dbl> <chr>    <int> <chr>  
##  1      2.00      830            819     11.0  UA        1545 N14228 
##  2      4.00      850            830     20.0  UA        1714 N24211 
##  3      2.00      923            850     33.0  AA        1141 N619AA 
##  4     -1.00     1004           1022    -18.0  B6         725 N804JB 
##  5     -6.00      812            837    -25.0  DL         461 N668DN 
##  6     -4.00      740            728     12.0  UA        1696 N39463 
##  7     -5.00      913            854     19.0  B6         507 N516JB 
##  8     -3.00      709            723    -14.0  EV        5708 N829AS 
##  9     -3.00      838            846    - 8.00 B6          79 N593JB 
## 10     -2.00      753            745      8.00 AA         301 N3ALAA 
## # ... with 336,766 more rows, and 3 more variables: origin <chr>, dest
## #   <chr>, air_time <dbl>

# Select all columns except those from year to day (exclusive)
select(flights, -(year:day))

## # A tibble: 336,776 x 16
##    dep_time sched_dep_time dep_delay arr_time sched_arr_time arr_delay
##       <int>          <int>     <dbl>    <int>          <int>     <dbl>
##  1      517            515      2.00      830            819     11.0 
##  2      533            529      4.00      850            830     20.0 
##  3      542            540      2.00      923            850     33.0 
##  4      544            545     -1.00     1004           1022    -18.0 
##  5      554            600     -6.00      812            837    -25.0 
##  6      554            558     -4.00      740            728     12.0 
##  7      555            600     -5.00      913            854     19.0 
##  8      557            600     -3.00      709            723    -14.0 
##  9      557            600     -3.00      838            846    - 8.00
## 10      558            600     -2.00      753            745      8.00
## # ... with 336,766 more rows, and 10 more variables: carrier <chr>, flight
## #   <int>, tailnum <chr>, origin <chr>, dest <chr>, air_time <dbl>,
## #   distance <dbl>, hour <dbl>, minute <dbl>, time_hour <dttm>
…
starts_with()

ends_with()

matches()

contains(). These let you quickly match larger blocks of variables that meet some criterion. See ?select for more details.

Renaming variables

You can rename variables with select() by using named arguments:

rename(flights, tail_num = tailnum)

## # A tibble: 336,776 x 19
##    year  month   day dep_time sched_dep_time dep_delay arr_time
##    <fct> <int> <int>    <int>          <int>     <dbl>    <int>
##  1 2013      1     1      517            515      2.00      830
##  2 2013      1     1      533            529      4.00      850
##  3 2013      1     1      542            540      2.00      923
##  4 2013      1     1      544            545     -1.00     1004
##  5 2013      1     1      554            600     -6.00      812
##  6 2013      1     1      554            558     -4.00      740
##  7 2013      1     1      555            600     -5.00      913
##  8 2013      1     1      557            600     -3.00      709
##  9 2013      1     1      557            600     -3.00      838
## 10 2013      1     1      558            600     -2.00      753
## # ... with 336,766 more rows, and 12 more variables: sched_arr_time <int>,
## #   arr_delay <dbl>, carrier <chr>, flight <int>, tail_num <chr>, origin
## #   <chr>, dest <chr>, air_time <dbl>, distance <dbl>, hour <dbl>, minute
## #   <dbl>, time_hour <dttm>
…
To add new columns that are functions (calculations) of existing columns.

This is the job of mutate():

flights_mutated <- flights %>%
  mutate(gain = arr_delay - dep_delay,
  speed = distance / air_time * 60) %>%
  filter(gain <= 0) %>% 
  select(gain, speed, carrier, origin, month, day) %>%
  arrange(gain)

flights_mutated

## # A tibble: 228,547 x 6
##      gain speed carrier origin month   day
##     <dbl> <dbl> <fct>   <chr>  <int> <int>
##  1 -109     390 EV      EWR        6    13
##  2 - 87.0   512 HA      JFK        2    26
##  3 - 80.0   499 HA      JFK        2    23
##  4 - 79.0   496 DL      JFK        5    13
##  5 - 76.0   508 HA      JFK        2    27
##  6 - 74.0   533 UA      EWR        7    14
##  7 - 74.0   522 UA      EWR        7    17
##  8 - 73.0   475 UA      EWR       12    27
##  9 - 73.0   491 UA      EWR        5     2
## 10 - 72.0   477 DL      JFK       11    13
## # ... with 228,537 more rows

Another mutate example

mutate(flights,
  gain = arr_delay - dep_delay,
  gain_per_hour = gain / (air_time / 60)
) 

## # A tibble: 336,776 x 21
##    year  month   day dep_time sched_dep_time dep_delay arr_time
##    <fct> <int> <int>    <int>          <int>     <dbl>    <int>
##  1 2013      1     1      517            515      2.00      830
##  2 2013      1     1      533            529      4.00      850
##  3 2013      1     1      542            540      2.00      923
##  4 2013      1     1      544            545     -1.00     1004
##  5 2013      1     1      554            600     -6.00      812
##  6 2013      1     1      554            558     -4.00      740
##  7 2013      1     1      555            600     -5.00      913
##  8 2013      1     1      557            600     -3.00      709
##  9 2013      1     1      557            600     -3.00      838
## 10 2013      1     1      558            600     -2.00      753
## # ... with 336,766 more rows, and 14 more variables: sched_arr_time <int>,
## #   arr_delay <dbl>, carrier <fct>, flight <int>, tailnum <chr>, origin
## #   <chr>, dest <chr>, air_time <dbl>, distance <dbl>, hour <dbl>, minute
## #   <dbl>, time_hour <dttm>, gain <dbl>, gain_per_hour <dbl>
…
sample_frac(flights, 0.01)

## # A tibble: 3,368 x 19
##    year  month   day dep_time sched_dep_time dep_delay arr_time
##    <fct> <int> <int>    <int>          <int>     <dbl>    <int>
##  1 2013     12     6     1844           1830     14.0      2126
##  2 2013      4     6      902            729     93.0      1100
##  3 2013      1    17     1325           1330    - 5.00     1625
##  4 2013     10    17      625            630    - 5.00      752
##  5 2013     11    20      751            755    - 4.00      903
##  6 2013      6    28     2055           1935     80.0      2400
##  7 2013      8    10      849            824     25.0      1034
##  8 2013     11    19     1124           1129    - 5.00     1423
##  9 2013      7     9     1526           1529    - 3.00     1833
## 10 2013      1    22      955           1000    - 5.00     1256
## # ... with 3,358 more rows, and 12 more variables: sched_arr_time <int>,
## #   arr_delay <dbl>, carrier <fct>, flight <int>, tailnum <chr>, origin
## #   <chr>, dest <chr>, air_time <dbl>, distance <dbl>, hour <dbl>, minute
## #   <dbl>, time_hour <dttm>
…
slice() extracts rows within each group.

summarise() is powerful and easy to understand, as described in more detail below.

In the following example, we split the complete dataset into individual planes and then summarise each plane by counting the number of flights (count = n()) and computing the average distance (dist = mean(Distance, na.rm = TRUE)) and arrival delay (delay = mean(ArrDelay, na.rm = TRUE)). We then use ggplot2 to display the output.

by_tailnum <- flights %>%
   group_by(tailnum) %>%
   summarise(count = n(),
   dist = mean(distance, na.rm = TRUE),
   delay = mean(arr_delay, na.rm = TRUE)) %>%
   arrange(desc(delay))
by_tailnum

## # A tibble: 4,044 x 4
##    tailnum count  dist delay
##    <chr>   <int> <dbl> <dbl>
##  1 N844MH      1   760   320
##  2 N911DA      1  1020   294
##  3 N922EV      1   963   276
##  4 N587NW      1   762   264
##  5 N851NW      1  2422   219
##  6 N928DN      1  1020   201
##  7 N7715E      1   711   188
##  8 N654UA      1  2227   185
##  9 N665MQ      6   482   175
## 10 N427SW      1   488   157
## # ... with 4,034 more rows
…
## # A tibble: 4 x 19
##   year  month   day dep_time sched_dep_time dep_delay arr_time
##   <fct> <int> <int>    <int>          <int>     <dbl>    <int>
## 1 2013      2    11     1508           1400     68.0      1807
## 2 2013      3    23     1340           1300     40.0      1638
## 3 2013      3    24      859            835     24.0      1142
## 4 2013      7     5     1253           1259    - 6.00     1518
## # ... with 12 more variables: sched_arr_time <int>, arr_delay <dbl>,
## #   carrier <fct>, flight <int>, tailnum <chr>, origin <chr>, dest <chr>,
## #   air_time <dbl>, distance <dbl>, hour <dbl>, minute <dbl>, time_hour
## #   <dttm>

(delay <- filter(by_tailnum, count > 20, dist < 2000))

## # A tibble: 2,962 x 4
##    tailnum count  dist delay
##    <chr>   <int> <dbl> <dbl>
##  1 N203FR     41  1620  59.1
##  2 N645MQ     25   480  51.0
##  3 N956AT     36   639  47.6
##  4 N988AT     37   643  44.3
##  5 N353AT     21   762  41.2
##  6 N6716C     25  1454  40.3
##  7 N908MQ     22   472  38.5
##  8 N657MQ     39   505  38.5
##  9 N942MQ     44   462  38.3
## 10 N987AT     28   619  37.4
## # ... with 2,952 more rows
…
n_distinct(x):the number of unique values in x.

first(x), last(x) and nth(x, n) - these work similarly to x[1], x[length(x)], and x[n] but give you more control over the result if the value is missing.

Destinations

For example, we could use these to find the number of planes and the number of flights that go to each possible destination:

destinations <- group_by(flights, dest)
summarise(destinations,
  planes = n_distinct(tailnum),
  flights = n()
)

## # A tibble: 105 x 3
##    dest  planes flights
##    <chr>  <int>   <int>
##  1 ABQ      108     254
##  2 ACK       58     265
##  3 ALB      172     439
##  4 ANC        6       8
##  5 ATL     1180   17215
##  6 AUS      993    2439
##  7 AVL      159     275
##  8 BDL      186     443
##  9 BGR       46     375
## 10 BHM       45     297
## # ... with 95 more rows

Inceremental summary (roll-up)

When you group by multiple variables, each summary peels off one level of the grouping. That makes it easy to progressively roll-up a dataset:

daily <- group_by(flights, year, month, day)
(per_day   <- summarise(daily, flights = n()))

## # A tibble: 365 x 4
## # Groups: year, month [?]
##    year  month   day flights
##    <fct> <int> <int>   <int>
##  1 2013      1     1     842
##  2 2013      1     2     943
##  3 2013      1     3     914
##  4 2013      1     4     915
##  5 2013      1     5     720
##  6 2013      1     6     832
##  7 2013      1     7     933
##  8 2013      1     8     899
##  9 2013      1     9     902
## 10 2013      1    10     932
## # ... with 355 more rows
…
filter(
  summarise(
    select(
      group_by(flights, year, month, day),
      arr_delay, dep_delay
    ),
    arr = mean(arr_delay, na.rm = TRUE),
    dep = mean(dep_delay, na.rm = TRUE)
  ),
  arr > 30 | dep > 30
)

## Adding missing grouping variables: `year`, `month`, `day`

## # A tibble: 49 x 5
## # Groups: year, month [11]
##    year  month   day   arr   dep
##    <fct> <int> <int> <dbl> <dbl>
##  1 2013      1    16  34.2  24.6
##  2 2013      1    31  32.6  28.7
##  3 2013      2    11  36.3  39.1
##  4 2013      2    27  31.3  37.8
##  5 2013      3     8  85.9  83.5
##  6 2013      3    18  41.3  30.1
##  7 2013      4    10  38.4  33.0
##  8 2013      4    12  36.0  34.8
##  9 2013      4    18  36.0  34.9
## 10 2013      4    19  47.9  46.1
## # ... with 39 more rows
…
