Data Visualizations
…
Other distributions - examples

There are other distributions than the normal distribution.

distributions <- data.frame(std.normal=rnorm(10000, m=0, sd=1),
                     wide.normal=rnorm(10000, m=0, sd=2),
                     exponent=rexp(10000, rate=2),
                     uniform=runif(10000, min=-3, max=3)
                     )
distributions <- as_tibble(distributions)
distributions

## # A tibble: 10,000 x 4
##    std.normal wide.normal exponent uniform
##         <dbl>       <dbl>    <dbl>   <dbl>
##  1      0.224      1.26     1.06   -2.27  
##  2     -1.16       0.220    0.747  -0.515 
##  3      0.422      2.54     0.0766  2.26  
##  4     -1.32      -0.491    0.316   0.807 
##  5      0.141      0.0398   1.00    0.0741
##  6     -0.536     -2.38     0.0323 -0.962 
##  7     -0.312     -1.78     0.865  -0.459 
##  8      1.56      -3.04     0.398   0.878 
##  9     -0.448      2.07     0.0265  2.31  
## 10      0.321      2.48     0.246  -2.06  
## # ... with 9,990 more rows
…
We will look at this distribution using one of R's build-in datasets: the eruptions of the Yellowstone Geyser "Old Faithful". Information on the dataset can be found running the command ?faithful in the console.

The faithful dataset

library(mixtools)

## mixtools package, version 1.1.0, Released 2017-03-10
## This package is based upon work supported by the National Science Foundation under Grant No. SES-0518772.

data(faithful)
faithful <- as_tibble(faithful)
faithful

## # A tibble: 272 x 2
##    eruptions waiting
##  *     <dbl>   <dbl>
##  1      3.60    79.0
##  2      1.80    54.0
##  3      3.33    74.0
##  4      2.28    62.0
##  5      4.53    85.0
##  6      2.88    55.0
##  7      4.70    88.0
##  8      3.60    85.0
##  9      1.95    51.0
## 10      4.35    85.0
## # ... with 262 more rows
…
Type ?ggplot to get more help and links

Build in datasets in R

For this exercise we will use the "mpg" ("Miles per gallon") dataset, available in R.

To get info on the dataset: ?mpg

The mpg dataset

library(tidyverse)
mpg

## # A tibble: 234 x 11
##    manufacturer model    displ  year   cyl trans   drv     cty   hwy fl   
##    <chr>        <chr>    <dbl> <int> <int> <chr>   <chr> <int> <int> <chr>
##  1 audi         a4        1.80  1999     4 auto(l~ f        18    29 p    
##  2 audi         a4        1.80  1999     4 manual~ f        21    29 p    
##  3 audi         a4        2.00  2008     4 manual~ f        20    31 p    
##  4 audi         a4        2.00  2008     4 auto(a~ f        21    30 p    
##  5 audi         a4        2.80  1999     6 auto(l~ f        16    26 p    
##  6 audi         a4        2.80  1999     6 manual~ f        18    26 p    
##  7 audi         a4        3.10  2008     6 auto(a~ f        18    27 p    
##  8 audi         a4 quat~  1.80  1999     4 manual~ 4        18    26 p    
##  9 audi         a4 quat~  1.80  1999     4 auto(l~ 4        16    25 p    
## 10 audi         a4 quat~  2.00  2008     4 manual~ 4        20    28 p    
## # ... with 224 more rows, and 1 more variable: class <chr>
…
