R opdracht
…
class(toxcast) # Klasse van de data

## [1] "tbl_df"     "tbl"        "data.frame"

dim(toxcast) # Aantal observaties en variabelen 

## [1] 11815    53

toxcast

## # A tibble: 11,815 x 53
##       X1 chemical_id      chemical_casrn chemical_name chemical_sets      
##    <int> <chr>            <chr>          <chr>         <chr>              
##  1     1 DSSTox_GSID_346~ 42509-80-8     Isazofos      phase1v1;phase1v2;~
##  2     2 DSSTox_GSID_346~ 42509-80-8     Isazofos      phase1v1;phase1v2;~
##  3     3 DSSTox_GSID_346~ 42509-80-8     Isazofos      phase1v1;phase1v2;~
##  4     4 DSSTox_GSID_346~ 42509-80-8     Isazofos      phase1v1;phase1v2;~
##  5     5 DSSTox_GSID_346~ 42509-80-8     Isazofos      phase1v1;phase1v2;~
##  6     6 DSSTox_GSID_346~ 42509-80-8     Isazofos      phase1v1;phase1v2;~
##  7     7 DSSTox_GSID_346~ 42509-80-8     Isazofos      phase1v1;phase1v2;~
##  8     8 DSSTox_GSID_346~ 42509-80-8     Isazofos      phase1v1;phase1v2;~
##  9     9 DSSTox_GSID_346~ 42509-80-8     Isazofos      phase1v1;phase1v2;~
## 10    10 DSSTox_GSID_346~ 42509-80-8     Isazofos      phase1v1;phase1v2;~
## # ... with 11,805 more rows, and 48 more variables: data_source <chr>,
## #   entry_status_id <int>, entry_status <chr>, entry_level_id <int>,
## #   entry_level <chr>, usability <int>, usability_desc <chr>, study_id
## #   <int>, source_study_numeric_id <chr>, source_study_alphanumeric_id
## #   <chr>, year <chr>, citation <chr>, guideline_no <dbl>, guideline_name
## #   <chr>, study_type_id <int>, species_id <int>, strain <chr>,
## #   comments_animal <chr>, admin_method <chr>, admin_route <chr>,
## #   dose_start <int>, dose_start_unit <chr>, dose_end <int>, dose_end_unit
## #   <chr>, lot_batch <chr>, purity <chr>, source <chr>, ldt <dbl>, hdt
…
arrange(toxcast) # Het sorteren van de data

## # A tibble: 11,815 x 53
##       X1 chemical_id      chemical_casrn chemical_name chemical_sets      
##    <int> <chr>            <chr>          <chr>         <chr>              
##  1     1 DSSTox_GSID_346~ 42509-80-8     Isazofos      phase1v1;phase1v2;~
##  2     2 DSSTox_GSID_346~ 42509-80-8     Isazofos      phase1v1;phase1v2;~
##  3     3 DSSTox_GSID_346~ 42509-80-8     Isazofos      phase1v1;phase1v2;~
##  4     4 DSSTox_GSID_346~ 42509-80-8     Isazofos      phase1v1;phase1v2;~
##  5     5 DSSTox_GSID_346~ 42509-80-8     Isazofos      phase1v1;phase1v2;~
##  6     6 DSSTox_GSID_346~ 42509-80-8     Isazofos      phase1v1;phase1v2;~
##  7     7 DSSTox_GSID_346~ 42509-80-8     Isazofos      phase1v1;phase1v2;~
##  8     8 DSSTox_GSID_346~ 42509-80-8     Isazofos      phase1v1;phase1v2;~
##  9     9 DSSTox_GSID_346~ 42509-80-8     Isazofos      phase1v1;phase1v2;~
## 10    10 DSSTox_GSID_346~ 42509-80-8     Isazofos      phase1v1;phase1v2;~
## # ... with 11,805 more rows, and 48 more variables: data_source <chr>,
## #   entry_status_id <int>, entry_status <chr>, entry_level_id <int>,
## #   entry_level <chr>, usability <int>, usability_desc <chr>, study_id
## #   <int>, source_study_numeric_id <chr>, source_study_alphanumeric_id
## #   <chr>, year <chr>, citation <chr>, guideline_no <dbl>, guideline_name
## #   <chr>, study_type_id <int>, species_id <int>, strain <chr>,
## #   comments_animal <chr>, admin_method <chr>, admin_route <chr>,
## #   dose_start <int>, dose_start_unit <chr>, dose_end <int>, dose_end_unit
## #   <chr>, lot_batch <chr>, purity <chr>, source <chr>, ldt <dbl>, hdt
…
